{
  "pushId": "",
  "username": "",
  "mobileType": -1,
  "idVisit": -1,
  "schemaVersion": 3,
  "idWorkPlan": 1,
  "idModule": 1,
  "surveys": [
    {
      "idSurvey": 1,
      "required": false,
      "title": "Cobranza",
      "questions": [
        {
          "question": "Registro de datos",
          "questionType": 5,
          "position": 1,
          "required": false,
          "idQuestion": 1,
          "response": "",
          "idResponse": -1
        },
        {
          "question": "Nombre de quien pago",
          "questionType": 9,
          "position": 1,
          "required": true,
          "idQuestion": 2,
          "response": "",
          "idResponse": -1
        },
        {
          "question": "Monto Recibido",
          "questionType": 9,
          "position": 1,
          "required": true,
          "idQuestion": 3,
          "response": "",
          "idResponse": -1
        },
        {
          "question": "Agregar Imagen",
          "questionType": 7,
          "position": 1,
          "required": true,
          "idQuestion": 4,
          "response": "",
          "idResponse": -1
        },
        {
          "question": "Agregar Firma",
          "questionType": 8,
          "position": 1,
          "required": true,
          "idQuestion": 5,
          "response": "",
          "idResponse": -1
        },
        {
          "question": "Imagen",
          "questionType": 7,
          "position": 1,
          "required": true,
          "idQuestion": 6,
          "response": "",
          "idResponse": -1
        },
        {
          "question": "Ubicación: Cobranza",
          "questionType": 16,
          "visible": false,
          "position": 1,
          "required": true,
          "idQuestion": 7,
          "response": "",
          "idResponse": -1
        }
      ]
    },
    {
      "idSurvey": 2,
      "required": false,
      "title": "Promesa de Pago",
      "questions": [
        {
          "question": "Registro de datos",
          "questionType": 5,
          "position": 1,
          "required": false,
          "idQuestion": 1,
          "response": "",
          "idResponse": 0
        },
        {
          "question": "¿Pudo localizar el contacto?",
          "questionType": 3,
          "position": 1,
          "required": true,
          "idQuestion": 2,
          "answers": [
            {
              "answerId": 1,
              "title": "Si",
              "type": 2,
              "visible": true
            },
            {
              "answerId": 2,
              "title": "No",
              "type": 2,
              "visible": true
            }
          ],
          "response": "",
          "idResponse": -1
        },
        {
          "question": "Recibido por",
          "questionType": 9,
          "position": 1,
          "required": true,
          "idQuestion": 3,
          "response": "",
          "idResponse": -1
        },
        {
          "question": "Agregar Imagen",
          "questionType": 7,
          "position": 1,
          "required": true,
          "idQuestion": 4,
          "response": "",
          "idResponse": -1
        },
        {
          "question": "Comentarios",
          "questionType": 9,
          "position": 1,
          "required": true,
          "idQuestion": 5,
          "response": "",
          "idResponse": -1
        },
        {
          "question": "Ubicación Latitud(Documentos)",
          "questionType": 17,
          "position": 1,
          "required": false,
          "idQuestion": 6,
          "response": "",
          "idResponse": -1
        },
        {
          "question": "Ubicación Longitud (Documentos)",
          "questionType": 18,
          "position": 1,
          "required": false,
          "idQuestion": 7,
          "response": "",
          "idResponse": -1
        }
      ]
    },
    {
      "idSurvey": 3,
      "title": "Cierre",
      "required": true,
      "questions": [
        {
          "question": "Registro de datos",
          "questionType": 5,
          "position": 1,
          "required": false,
          "idQuestion": 1,
          "response": "",
          "idResponse": 0
        },
        {
          "question": "Motivo",
          "questionType": 2,
          "position": 1,
          "required": true,
          "idQuestion": 2,
          "answers": [
            {
              "answerId": 1,
              "title": "Respuesta 1",
              "type": 1,
              "visible": true
            },
            {
              "answerId": 2,
              "title": "Respuesta 2",
              "type": 1,
              "visible": true
            },
            {
              "answerId": 3,
              "title": "Otra respuesta (favor de especificar)",
              "type": 3,
              "visible": true
            }
          ],
          "response": "",
          "idResponse": -1
        },
        {
          "question": "AGREGAR IMAGEN",
          "questionType": 7,
          "position": 1,
          "required": true,
          "idQuestion": 3,
          "response": "",
          "idResponse": -1
        },
        {
          "question": "Comentarios",
          "questionType": 9,
          "position": 1,
          "required": true,
          "idQuestion": 4,
          "response": "",
          "idResponse": -1
        },
        {
          "question": "Ubicacion (Cobranza)",
          "questionType": 14,
          "position": 1,
          "required": false,
          "idQuestion": 5,
          "response": "",
          "idResponse": -1
        },
        {
          "question": "Ubicación Latitud(Documentos)",
          "questionType": 17,
          "position": 1,
          "required": false,
          "idQuestion": 6,
          "response": "",
          "idResponse": -1
        },
        {
          "question": "Ubicación Longitud (Documentos)",
          "questionType": 18,
          "position": 1,
          "required": false,
          "idQuestion": 7,
          "response": "",
          "idResponse": -1
        },
        {
          "question": "Registrar Revista",
          "questionType": 19,
          "position": 1,
          "required": false,
          "idQuestion": 8,
          "response": "",
          "idResponse": -1
        },
        {
          "question": "Registrar Libro",
          "questionType": 19,
          "position": 1,
          "required": false,
          "idQuestion": 9,
          "response": "",
          "idResponse": -1
        },
        {
          "question": "Registrar Otra Revista",
          "questionType": 19,
          "position": 1,
          "required": false,
          "idQuestion": 10,
          "response": "",
          "idResponse": -1
        },
        {
          "question": "Liga MX",
          "questionType": 16,
          "position": 1,
          "required": false,
          "idQuestion": 11,
          "response": "",
          "idResponse": -1,
          "answers": [
            {
              "answerId": 1,
              "title": "Equipo",
              "type": 1,
              "visible": true
            },
            {
              "answerId": 2,
              "title": "Partidos Jugados",
              "type": 1,
              "visible": true
            },
            {
              "answerId": 3,
              "title": "Partidos Ganados",
              "type": 1,
              "visible": true
            },
            {
              "answerId": 4,
              "title": "Partidos Empatados",
              "type": 1,
              "visible": true
            },
            {
              "answerId": 5,
              "title": "Partidos Perdidos",
              "type": 1,
              "visible": true
            }
          ],
          "responseArray": []
        }
      ]
    }
  ]
}